<?xml version="1.0" encoding="UTF-8"?>
<svg width="24px" height="24px" viewBox="0 0 24 24" version="1.1" xmlns="http://www.w3.org/2000/svg" xmlns:xlink="http://www.w3.org/1999/xlink" style="background: #F2F2F2;">
    <!-- Generator: Sketch 56.3 (81716) - https://sketch.com -->
    <title>Icon wira/electricity</title>
    <desc>Created with Sketch.</desc>
    <g id="Icon-wira/electricity" stroke="none" stroke-width="1" fill="none" fill-rule="evenodd">
        <rect fill="#F2F2F2" x="0" y="0" width="24" height="24"></rect>
        <g id="elctricity" transform="translate(5.000000, 1.000000)" fill-rule="nonzero">
            <polygon id="Path" fill="#FFFFFF" points="4.2 15.6 4.2 19.9 9.9 19.9 9.9 17 9.9 15.6 4.2 15.6"></polygon>
            <path d="M7.5,21.3 L6.4,21.3 C6.1,21.3 5.8,21.2 5.5,20.9 L4.8,19.9 L9.1,19.9 L8.4,20.9 C8.2,21.2 7.9,21.3 7.5,21.3" id="Path" fill="#E5E9EF"></path>
            <path d="M13.7,6.8 C13.3,3.6 10.8,1 7.6,0.7 C7.4,0.7 7.2,0.7 7,0.7 C6.8,0.7 6.6,0.7 6.4,0.7 C3.2,1.1 0.6,3.7 0.3,6.8 C0.1,9.1 0.9,11.1 2.4,12.6 C3.3,13.4 4,14.5 4.2,15.6 L9.9,15.6 C10.1,14.5 10.8,13.4 11.7,12.6 C13.1,11.2 14,9.1 13.7,6.8" id="Path" fill="#FFFFFF"></path>
            <polygon id="Path" fill="#FFCF3C" points="9.9 7.1 7.8 7.1 9.6 3.9 7.5 3.9 4.9 8.5 6.7 8.5 4.9 13.1"></polygon>
            <g id="Group" transform="translate(4.000000, 16.000000)" fill="#E5E9EF">
                <path d="M2.6,1.4 C2.8,1.4 3,1.3 3,1 C3,0.7 2.9,0.6 2.6,0.6 L0.2,0.6 L0.2,1.3 L2.6,1.4 L2.6,1.4 Z" id="Path"></path>
                <path d="M1.6,2.8 C1.8,2.8 2,2.7 2,2.4 C2,2.1 1.9,2 1.6,2 L0.2,2 L0.2,2.7 L1.6,2.8 L1.6,2.8 Z" id="Path"></path>
                <path d="M5.9,0.7 L4.5,0.7 C4.3,0.7 4.1,0.8 4.1,1.1 C4.1,1.4 4.2,1.5 4.5,1.5 L5.9,1.5 L5.9,1.1 L5.9,0.7 Z" id="Path"></path>
                <path d="M3.4,2.1 C3.2,2.1 3,2.2 3,2.5 C3,2.8 3.1,2.9 3.4,2.9 L5.9,2.9 L5.9,2.2 L3.4,2.1 L3.4,2.1 Z" id="Path"></path>
            </g>
        </g>
    </g>
</svg>