<?xml version="1.0" encoding="UTF-8"?>
<svg width="24px" height="24px" viewBox="0 0 24 24" version="1.1" xmlns="http://www.w3.org/2000/svg" xmlns:xlink="http://www.w3.org/1999/xlink" style="background: #F2F2F2;">
    <!-- Generator: Sketch 56.3 (81716) - https://sketch.com -->
    <title>Icon wira/Photvoltaic</title>
    <desc>Created with Sketch.</desc>
    <g id="Icon-wira/Photvoltaic" stroke="none" stroke-width="1" fill="none" fill-rule="evenodd">
        <rect fill="#F2F2F2" x="0" y="0" width="24" height="24"></rect>
        <g id="photovoltaic" transform="translate(2.000000, 2.000000)" fill-rule="nonzero">
            <path d="M18.8,15.3 L1.2,15.3 C0.9,15.3 0.6,15 0.6,14.7 L0.6,13.6 L3.6,9.5 L16.4,9.5 L19.4,13.6 L19.4,14.7 C19.4,15.1 19.2,15.3 18.8,15.3 Z" id="Path" fill="#FFFFFF"></path>
            <path d="M17.6,11.1 L13.9,11.1 L13.3,9.5 L12.7,9.5 C12.7,9.5 12.7,9.6 12.7,9.6 L13.3,11.1 L10.2,11.1 L10.2,9.5 L9.7,9.5 L9.7,11.1 L6.6,11.1 L7.2,9.6 C7.2,9.6 7.2,9.5 7.2,9.5 L6.7,9.5 L6.1,11.1 L2.4,11.1 L2,11.6 C2,11.6 2.1,11.7 2.2,11.7 L5.8,11.7 L5,13.6 C4.9,13.7 5,13.9 5.1,13.9 C5.2,13.9 5.4,13.9 5.4,13.8 L5.4,13.8 L6.3,11.7 L9.6,11.7 L9.6,13.7 C9.6,13.8 9.7,14 9.9,14 C10,14 10.2,13.9 10.2,13.7 L10.2,11.7 L13.5,11.7 L14.4,13.8 C14.5,13.9 14.6,14 14.7,13.9 C14.8,13.8 14.9,13.7 14.8,13.6 L14.8,13.6 L14,11.7 L17.6,11.7 C17.7,11.7 17.7,11.7 17.8,11.6 L17.6,11.1 Z" id="Path" fill="#E5E9EF"></path>
            <path d="M1.2,15.3 L18.9,15.3 C19.2,15.3 19.5,15 19.5,14.7 L19.5,13.6 L0.6,13.6 L0.6,14.7 C0.6,15.1 0.8,15.3 1.2,15.3 Z" id="Path" fill="#E5E9EF"></path>
            <polygon id="Path" fill="#E5E9EF" points="8.7 15.3 11.3 15.3 11.3 17.5 8.7 17.5"></polygon>
            <polygon id="Path" fill="#E5E9EF" points="14 20.1 6 20.1 6 18.8 7.5 17.5 12.5 17.5 14 18.8"></polygon>
            <g id="Group" transform="translate(6.000000, 0.000000)" fill="#F4B500">
                <circle id="Oval" cx="4" cy="4.7" r="1.5"></circle>
                <path d="M4,2.4 C3.9,2.4 3.7,2.3 3.7,2.1 L3.7,1.2 C3.7,1.1 3.8,0.9 4,0.9 C4.2,0.9 4.3,1 4.3,1.2 L4.3,2.1 C4.2,2.3 4.1,2.4 4,2.4 L4,2.4 Z" id="Path"></path>
                <path d="M4,2.4 C3.9,2.4 3.7,2.3 3.7,2.1 L3.7,1.2 C3.7,1.1 3.8,0.9 4,0.9 C4.2,0.9 4.3,1 4.3,1.2 L4.3,2.1 C4.2,2.3 4.1,2.4 4,2.4 L4,2.4 Z" id="Path"></path>
                <path d="M4,8.5 C3.9,8.5 3.7,8.4 3.7,8.2 L3.7,7.3 C3.7,7.2 3.8,7 4,7 C4.2,7 4.3,7.1 4.3,7.3 L4.3,8.2 C4.2,8.4 4.1,8.5 4,8.5 L4,8.5 Z" id="Path"></path>
                <path d="M4,8.5 C3.9,8.5 3.7,8.4 3.7,8.2 L3.7,7.3 C3.7,7.2 3.8,7 4,7 C4.2,7 4.3,7.1 4.3,7.3 L4.3,8.2 C4.2,8.4 4.1,8.5 4,8.5 L4,8.5 Z" id="Path"></path>
                <path d="M5.8,3.2 C5.7,3.2 5.5,3.1 5.5,2.9 C5.5,2.8 5.5,2.8 5.6,2.7 L6.3,2 C6.4,1.9 6.6,1.9 6.7,2 C6.8,2.1 6.8,2.3 6.7,2.4 L6,3.1 C6,3.1 5.9,3.2 5.8,3.2 Z" id="Path"></path>
                <path d="M5.8,3.2 C5.7,3.2 5.5,3.1 5.5,2.9 C5.5,2.8 5.5,2.8 5.6,2.7 L6.3,2 C6.4,1.9 6.6,1.9 6.7,2 C6.8,2.1 6.8,2.3 6.7,2.4 L6,3.1 C6,3.1 5.9,3.2 5.8,3.2 Z" id="Path"></path>
                <path d="M1.5,7.5 C1.4,7.5 1.2,7.4 1.2,7.2 C1.2,7.1 1.2,7.1 1.3,7 L2,6.3 C2.1,6.2 2.3,6.2 2.4,6.3 C2.5,6.4 2.5,6.6 2.4,6.7 L1.6,7.4 C1.6,7.5 1.5,7.5 1.5,7.5 Z" id="Path"></path>
                <path d="M1.5,7.5 C1.4,7.5 1.2,7.4 1.2,7.2 C1.2,7.1 1.2,7.1 1.3,7 L2,6.3 C2.1,6.2 2.3,6.2 2.4,6.3 C2.5,6.4 2.5,6.6 2.4,6.7 L1.6,7.4 C1.6,7.5 1.5,7.5 1.5,7.5 Z" id="Path"></path>
                <path d="M7.5,5 L6.6,5 C6.5,5 6.3,4.9 6.3,4.7 C6.3,4.5 6.4,4.4 6.6,4.4 L7.5,4.4 C7.6,4.4 7.8,4.5 7.8,4.7 C7.8,4.9 7.7,5 7.5,5 Z" id="Path"></path>
                <path d="M7.5,5 L6.6,5 C6.5,5 6.3,4.9 6.3,4.7 C6.3,4.5 6.4,4.4 6.6,4.4 L7.5,4.4 C7.6,4.4 7.8,4.5 7.8,4.7 C7.8,4.9 7.7,5 7.5,5 Z" id="Path"></path>
                <path d="M1.4,5 L0.4,5 C0.3,5 0.2,4.9 0.2,4.7 C0.2,4.5 0.3,4.4 0.5,4.4 L1.4,4.4 C1.5,4.4 1.7,4.5 1.7,4.7 C1.7,4.9 1.5,5 1.4,5 Z" id="Path"></path>
                <path d="M1.4,5 L0.4,5 C0.3,5 0.2,4.9 0.2,4.7 C0.2,4.5 0.3,4.4 0.5,4.4 L1.4,4.4 C1.5,4.4 1.7,4.5 1.7,4.7 C1.7,4.9 1.5,5 1.4,5 Z" id="Path"></path>
                <path d="M6.5,7.5 C6.4,7.5 6.4,7.5 6.3,7.4 L5.6,6.7 C5.5,6.6 5.5,6.4 5.6,6.3 C5.7,6.2 5.9,6.2 6,6.3 L6.7,7 C6.8,7.1 6.8,7.3 6.7,7.4 C6.6,7.5 6.5,7.5 6.5,7.5 Z" id="Path"></path>
                <path d="M6.5,7.5 C6.4,7.5 6.4,7.5 6.3,7.4 L5.6,6.7 C5.5,6.6 5.5,6.4 5.6,6.3 C5.7,6.2 5.9,6.2 6,6.3 L6.7,7 C6.8,7.1 6.8,7.3 6.7,7.4 C6.6,7.5 6.5,7.5 6.5,7.5 Z" id="Path"></path>
                <path d="M2.1,3.2 C2,3.2 2,3.2 1.9,3.1 L1.3,2.4 C1.2,2.3 1.2,2.1 1.3,2 C1.4,1.9 1.6,1.9 1.7,2 L2.4,2.7 C2.5,2.8 2.5,3 2.4,3.1 C2.3,3.1 2.2,3.2 2.1,3.2 Z" id="Path"></path>
                <path d="M2.1,3.2 C2,3.2 2,3.2 1.9,3.1 L1.3,2.4 C1.2,2.3 1.2,2.1 1.3,2 C1.4,1.9 1.6,1.9 1.7,2 L2.4,2.7 C2.5,2.8 2.5,3 2.4,3.1 C2.3,3.1 2.2,3.2 2.1,3.2 Z" id="Path"></path>
            </g>
        </g>
    </g>
</svg>