<?xml version="1.0" encoding="UTF-8"?>
<svg width="24px" height="24px" viewBox="0 0 24 24" version="1.1" xmlns="http://www.w3.org/2000/svg" xmlns:xlink="http://www.w3.org/1999/xlink" style="background: #F2F2F2;">
    <!-- Generator: Sketch 56.3 (81716) - https://sketch.com -->
    <title>Icon/App/Linkedin</title>
    <desc>Created with Sketch.</desc>
    <g id="Icon/App/Linkedin" stroke="none" stroke-width="1" fill="none" fill-rule="evenodd">
        <rect fill="#F2F2F2" x="0" y="0" width="24" height="24"></rect>
        <path d="M19.3,4 L4.7,4 C4.3,4 4,4.3 4,4.7 L4,19.4 C4,19.7 4.3,20 4.7,20 L19.4,20 C19.8,20 20.1,19.7 20.1,19.3 L20.1,4.7 C20,4.3 19.7,4 19.3,4 Z M8.7,17.6 L6.4,17.6 L6.4,10 L8.8,10 L8.8,17.6 L8.7,17.6 Z M7.6,9 C6.8,9 6.2,8.3 6.2,7.6 C6.2,6.8 6.8,6.2 7.6,6.2 C8.4,6.2 9,6.8 9,7.6 C8.9,8.3 8.3,9 7.6,9 Z M17.6,17.6 L15.2,17.6 L15.2,13.9 C15.2,13 15.2,11.9 14,11.9 C12.8,11.9 12.6,12.9 12.6,13.9 L12.6,17.7 L10.2,17.7 L10.2,10 L12.5,10 L12.5,11 L12.5,11 C12.8,10.4 13.6,9.8 14.7,9.8 C17.1,9.8 17.5,11.4 17.5,13.4 L17.5,17.6 L17.6,17.6 Z" id="Fill" fill="#000000" fill-rule="nonzero"></path>
    </g>
</svg>